{
  "config" : {
    "speedmentVersion" : "Speedment:3.1.15",
    "nameProtected" : false,
    "expanded" : true,
    "appId" : "272fafc6-05c8-451d-9c0f-584822cc02c1",
    "companyName" : "company",
    "name" : "mydb",
    "packageLocation" : "src/main/java/",
    "id" : "mydb",
    "packageName" : "database",
    "dbmses" : [
      {
        "expanded" : true,
        "schemas" : [
          {
            "tables" : [
              {
                "expanded" : true,
                "primaryKeyColumns" : [
                  {
                    "expanded" : true,
                    "name" : "rowid",
                    "id" : "rowid",
                    "ordinalPosition" : 1,
                    "enabled" : true
                  }
                ],
                "isView" : false,
                "columns" : [
                  {
                    "databaseType" : "java.lang.Integer",
                    "expanded" : true,
                    "nullable" : true,
                    "name" : "sid",
                    "id" : "sid",
                    "ordinalPosition" : 1,
                    "enabled" : true
                  },
                  {
                    "databaseType" : "java.lang.String",
                    "expanded" : true,
                    "nullable" : true,
                    "name" : "name",
                    "id" : "name",
                    "ordinalPosition" : 2,
                    "enabled" : true
                  },
                  {
                    "databaseType" : "java.lang.String",
                    "expanded" : true,
                    "nullable" : true,
                    "name" : "blood",
                    "id" : "blood",
                    "ordinalPosition" : 3,
                    "enabled" : true
                  },
                  {
                    "databaseType" : "java.lang.String",
                    "expanded" : true,
                    "nullable" : true,
                    "name" : "birthday",
                    "id" : "birthday",
                    "ordinalPosition" : 4,
                    "enabled" : true
                  },
                  {
                    "databaseType" : "java.lang.String",
                    "expanded" : true,
                    "nullable" : true,
                    "name" : "place",
                    "id" : "place",
                    "ordinalPosition" : 5,
                    "enabled" : true
                  },
                  {
                    "databaseType" : "java.lang.String",
                    "expanded" : true,
                    "nullable" : true,
                    "name" : "sex",
                    "id" : "sex",
                    "ordinalPosition" : 6,
                    "enabled" : true
                  },
                  {
                    "databaseType" : "java.lang.String",
                    "expanded" : true,
                    "nullable" : true,
                    "name" : "avator",
                    "id" : "avator",
                    "ordinalPosition" : 7,
                    "enabled" : true
                  },
                  {
                    "databaseType" : "java.lang.Long",
                    "typeMapper" : "com.speedment.runtime.typemapper.primitive.PrimitiveTypeMapper",
                    "expanded" : true,
                    "nullable" : false,
                    "autoIncrement" : true,
                    "name" : "rowid",
                    "id" : "rowid",
                    "ordinalPosition" : 0,
                    "enabled" : true
                  }
                ],
                "name" : "NewTable",
                "id" : "NewTable",
                "enabled" : true
              },
              {
                "expanded" : true,
                "primaryKeyColumns" : [
                  {
                    "expanded" : true,
                    "name" : "rowid",
                    "id" : "rowid",
                    "ordinalPosition" : 1,
                    "enabled" : true
                  }
                ],
                "isView" : false,
                "columns" : [
                  {
                    "databaseType" : "java.lang.String",
                    "expanded" : true,
                    "nullable" : true,
                    "name" : "cityname",
                    "id" : "cityname",
                    "ordinalPosition" : 1,
                    "enabled" : true
                  },
                  {
                    "databaseType" : "java.lang.Long",
                    "typeMapper" : "com.speedment.runtime.typemapper.primitive.PrimitiveTypeMapper",
                    "expanded" : true,
                    "nullable" : false,
                    "autoIncrement" : true,
                    "name" : "rowid",
                    "id" : "rowid",
                    "ordinalPosition" : 0,
                    "enabled" : true
                  }
                ],
                "name" : "city",
                "id" : "city",
                "enabled" : true
              }
            ],
            "expanded" : true,
            "name" : "schema",
            "id" : "schema",
            "enabled" : true
          }
        ],
        "typeName" : "SQLite",
        "localPath" : "..\..\Downloads\sqlite-tools-win32-x86-3270200\mydb.sqlite3",
        "name" : "",
        "id" : "",
        "enabled" : true
      }
    ],
    "enabled" : true
  }
}